{
  "name": "Larvitar",
  "nationalPokedexNumber": 246,
  "primaryType": "rock",
  "secondaryType": "ground",
  "abilities": [
    "guts",
    "h:sandveil"
  ],
  "baseStats": {
    "hp": 50,
    "attack": 64,
    "defence": 50,
    "special_attack": 45,
    "special_defence": 50,
    "speed": 41
  },
  "catchRate": 45,
  "maleRatio": 0.5,
  "shoulderMountable": false,
  "baseExperienceYield": 60,
  "experienceGroup": "slow",
  "eggCycles": 40,
  "eggGroups": [
    "monster"
  ],
  "moves": [
    "1:leer",
    "1:tackle",
    "3:rockthrow",
    "6:payback",
    "9:bite",
    "12:scaryface",
    "14:chipaway",
    "15:rockslide",
    "18:stompingtantrum",
    "21:screech",
    "24:smackdown",
    "27:crunch",
    "31:earthquake",
    "33:stoneedge",
    "36:thrash",
    "39:sandstorm",
    "42:hyperbeam",
    "egg:ancientpower",
    "egg:assurance",
    "egg:curse",
    "egg:dragondance",
    "egg:focusenergy",
    "egg:irondefense",
    "egg:ironhead",
    "egg:outrage",
    "egg:pursuit",
    "egg:stomp",
    "tm:attract",
    "tm:bodyslam",
    "tm:brickbreak",
    "tm:bulldoze",
    "tm:captivate",
    "tm:confide",
    "tm:crunch",
    "tm:darkpulse",
    "tm:dig",
    "tm:doubleteam",
    "tm:dragondance",
    "tm:earthpower",
    "tm:earthquake",
    "tm:endure",
    "tm:facade",
    "tm:frustration",
    "tm:gigaimpact",
    "tm:helpinghand",
    "tm:hiddenpower",
    "tm:hyperbeam",
    "tm:irondefense",
    "tm:ironhead",
    "tm:irontail",
    "tm:muddywater",
    "tm:mudshot",
    "tm:mudslap",
    "tm:naturalgift",
    "tm:outrage",
    "tm:poweruppunch",
    "tm:protect",
    "tm:raindance",
    "tm:rest",
    "tm:retaliate",
    "tm:return",
    "tm:rockblast",
    "tm:rockpolish",
    "tm:rockslide",
    "tm:rocksmash",
    "tm:rocktomb",
    "tm:round",
    "tm:sandstorm",
    "tm:sandtomb",
    "tm:scaryface",
    "tm:secretpower",
    "tm:sleeptalk",
    "tm:snarl",
    "tm:snore",
    "tm:stealthrock",
    "tm:stompingtantrum",
    "tm:stoneedge",
    "tm:substitute",
    "tm:sunnyday",
    "tm:superpower",
    "tm:swagger",
    "tm:takedown",
    "tm:taunt",
    "tm:terablast",
    "tm:torment",
    "tm:toxic",
    "tm:uproar",
    "tutor:detect",
    "tutor:doubleedge",
    "tutor:doubleteam",
    "tutor:frustration",
    "tutor:headbutt",
    "tutor:hiddenpower",
    "tutor:mimic",
    "tutor:pursuit",
    "tutor:return",
    "tutor:spite",
    "tutor:swagger",
    "tutor:toxic"
  ],
  "labels": [
    "gen2"
  ],
  "pokedex": [
    "cobblemon.species.larvitar.desc"
  ],
  "evolutions": [
    {
      "id": "larvitar_pupitar",
      "variant": "level_up",
      "result": "pupitar",
      "consumeHeldItem": false,
      "learnableMoves": [
        "irondefense"
      ],
      "requirements": [
        {
          "variant": "level",
          "minLevel": 30
        }
      ]
    }
  ],
  "baseScale": 1,
  "hitbox": {
    "width": 1,
    "height": 1,
    "fixed": false
  },
  "baseFriendship": 35,
  "evYield": {
    "hp": 0,
    "attack": 1,
    "defence": 0,
    "special_attack": 0,
    "special_defence": 0,
    "speed": 0
  },
  "height": 6,
  "weight": 720,
  "aspects": [],
  "cannotDynamax": false
}