{
  "name": "Talonflame",
  "nationalPokedexNumber": 663,
  "primaryType": "fire",
  "secondaryType": "flying",
  "abilities": [
    "flamebody",
    "h:galewings"
  ],
  "baseStats": {
    "hp": 78,
    "attack": 81,
    "defence": 71,
    "special_attack": 74,
    "special_defence": 69,
    "speed": 126
  },
  "catchRate": 45,
  "maleRatio": 0.5,
  "shoulderMountable": false,
  "baseExperienceYield": 175,
  "experienceGroup": "medium_slow",
  "eggCycles": 15,
  "eggGroups": [
    "flying"
  ],
  "moves": [
    "1:ember",
    "1:feint",
    "1:flamecharge",
    "1:flareblitz",
    "1:growl",
    "1:peck",
    "1:quickattack",
    "1:tackle",
    "15:flail",
    "22:acrobatics",
    "27:razorwind",
    "29:agility",
    "31:naturalgift",
    "38:aerialace",
    "47:tailwind",
    "49:mefirst",
    "56:steelwing",
    "65:roost",
    "74:fly",
    "83:bravebird",
    "tm:acrobatics",
    "tm:aerialace",
    "tm:agility",
    "tm:aircutter",
    "tm:airslash",
    "tm:attract",
    "tm:bravebird",
    "tm:bulkup",
    "tm:confide",
    "tm:doubleteam",
    "tm:endure",
    "tm:facade",
    "tm:fireblast",
    "tm:firespin",
    "tm:flamecharge",
    "tm:flamethrower",
    "tm:flareblitz",
    "tm:fly",
    "tm:frustration",
    "tm:gigaimpact",
    "tm:heatwave",
    "tm:hiddenpower",
    "tm:honeclaws",
    "tm:hurricane",
    "tm:hyperbeam",
    "tm:incinerate",
    "tm:overheat",
    "tm:protect",
    "tm:raindance",
    "tm:rest",
    "tm:return",
    "tm:round",
    "tm:secretpower",
    "tm:sleeptalk",
    "tm:snore",
    "tm:solarbeam",
    "tm:substitute",
    "tm:sunnyday",
    "tm:swagger",
    "tm:swift",
    "tm:swordsdance",
    "tm:tailwind",
    "tm:takedown",
    "tm:taunt",
    "tm:terablast",
    "tm:thief",
    "tm:toxic",
    "tm:uturn",
    "tm:willowisp",
    "tm:workup",
    "tutor:defog",
    "tutor:dualwingbeat",
    "tutor:snatch"
  ],
  "labels": [
    "gen6"
  ],
  "pokedex": [
    "cobblemon.species.talonflame.desc"
  ],
  "preEvolution": "fletchinder",
  "evolutions": [],
  "baseScale": 1,
  "hitbox": {
    "width": 1,
    "height": 1,
    "fixed": false
  },
  "baseFriendship": 50,
  "evYield": {
    "hp": 0,
    "attack": 0,
    "defence": 0,
    "special_attack": 0,
    "special_defence": 0,
    "speed": 3
  },
  "height": 12,
  "weight": 245,
  "aspects": [],
  "cannotDynamax": false
}