{
  "name": "Pansage",
  "nationalPokedexNumber": 511,
  "primaryType": "grass",
  "abilities": [
    "gluttony",
    "h:overgrow"
  ],
  "baseStats": {
    "hp": 50,
    "attack": 53,
    "defence": 48,
    "special_attack": 53,
    "special_defence": 48,
    "speed": 64
  },
  "catchRate": 190,
  "maleRatio": 0.875,
  "shoulderMountable": false,
  "baseExperienceYield": 63,
  "experienceGroup": "medium_fast",
  "eggCycles": 20,
  "eggGroups": [
    "field"
  ],
  "moves": [
    "1:playnice",
    "1:scratch",
    "4:leer",
    "7:lick",
    "10:vinewhip",
    "13:furyswipes",
    "16:leechseed",
    "19:bite",
    "22:seedbomb",
    "25:torment",
    "28:fling",
    "31:acrobatics",
    "34:grassknot",
    "37:recycle",
    "40:naturalgift",
    "43:crunch",
    "egg:astonish",
    "egg:bulletseed",
    "egg:covet",
    "egg:disarmingvoice",
    "egg:grasswhistle",
    "egg:leafstorm",
    "egg:lowkick",
    "egg:magicalleaf",
    "egg:nastyplot",
    "egg:roleplay",
    "egg:spikyshield",
    "egg:tickle",
    "tm:acrobatics",
    "tm:attract",
    "tm:confide",
    "tm:cut",
    "tm:dig",
    "tm:doubleteam",
    "tm:energyball",
    "tm:facade",
    "tm:flash",
    "tm:fling",
    "tm:frustration",
    "tm:grassknot",
    "tm:hiddenpower",
    "tm:honeclaws",
    "tm:lowsweep",
    "tm:naturepower",
    "tm:payback",
    "tm:protect",
    "tm:rest",
    "tm:return",
    "tm:rocksmash",
    "tm:rocktomb",
    "tm:round",
    "tm:secretpower",
    "tm:shadowclaw",
    "tm:sleeptalk",
    "tm:solarbeam",
    "tm:substitute",
    "tm:sunnyday",
    "tm:swagger",
    "tm:taunt",
    "tm:thief",
    "tm:torment",
    "tm:toxic",
    "tm:workup",
    "tutor:covet",
    "tutor:endeavor",
    "tutor:focuspunch",
    "tutor:gastroacid",
    "tutor:gigadrain",
    "tutor:grasspledge",
    "tutor:gunkshot",
    "tutor:helpinghand",
    "tutor:irontail",
    "tutor:knockoff",
    "tutor:lowkick",
    "tutor:recycle",
    "tutor:roleplay",
    "tutor:seedbomb",
    "tutor:snore",
    "tutor:synthesis",
    "tutor:uproar",
    "tutor:worryseed"
  ],
  "labels": [
    "gen5"
  ],
  "pokedex": [
    "cobblemon.species.pansage.desc"
  ],
  "evolutions": [
    {
      "id": "pansage_simisage",
      "variant": "item_interact",
      "result": "simisage",
      "consumeHeldItem": false,
      "learnableMoves": [],
      "requirements": [],
      "requiredContext": "cobblemon:leaf_stone"
    }
  ],
  "baseScale": 1,
  "hitbox": {
    "width": 1,
    "height": 1,
    "fixed": false
  },
  "baseFriendship": 70,
  "evYield": {
    "hp": 0,
    "attack": 0,
    "defence": 0,
    "special_attack": 0,
    "special_defence": 0,
    "speed": 1
  },
  "height": 6,
  "weight": 105,
  "aspects": [],
  "cannotDynamax": false
}