{
  "name": "Pidove",
  "nationalPokedexNumber": 519,
  "primaryType": "normal",
  "secondaryType": "flying",
  "abilities": [
    "bigpecks",
    "superluck",
    "h:rivalry"
  ],
  "baseStats": {
    "hp": 50,
    "attack": 55,
    "defence": 50,
    "special_attack": 36,
    "special_defence": 30,
    "speed": 43
  },
  "catchRate": 255,
  "maleRatio": 0.5,
  "shoulderMountable": false,
  "baseExperienceYield": 53,
  "experienceGroup": "medium_slow",
  "eggCycles": 15,
  "eggGroups": [
    "flying"
  ],
  "moves": [
    "1:growl",
    "1:gust",
    "4:leer",
    "8:quickattack",
    "12:taunt",
    "16:aircutter",
    "20:swagger",
    "24:featherdance",
    "28:detect",
    "32:airslash",
    "32:razorwind",
    "36:roost",
    "40:tailwind",
    "44:skyattack",
    "egg:bestow",
    "egg:defog",
    "egg:hypnosis",
    "egg:luckychant",
    "egg:morningsun",
    "egg:nightslash",
    "egg:wish",
    "tm:aerialace",
    "tm:agility",
    "tm:airslash",
    "tm:attract",
    "tm:confide",
    "tm:doubleteam",
    "tm:echoedvoice",
    "tm:endure",
    "tm:facade",
    "tm:fly",
    "tm:focusenergy",
    "tm:frustration",
    "tm:heatwave",
    "tm:hiddenpower",
    "tm:pluck",
    "tm:protect",
    "tm:raindance",
    "tm:rest",
    "tm:return",
    "tm:round",
    "tm:secretpower",
    "tm:sleeptalk",
    "tm:snore",
    "tm:steelwing",
    "tm:substitute",
    "tm:sunnyday",
    "tm:swift",
    "tm:taunt",
    "tm:toxic",
    "tm:uproar",
    "tm:uturn",
    "tm:workup",
    "tutor:dualwingbeat"
  ],
  "labels": [
    "gen5"
  ],
  "pokedex": [
    "cobblemon.species.pidove.desc"
  ],
  "evolutions": [
    {
      "id": "pidove_tranquill",
      "variant": "level_up",
      "result": "tranquill",
      "consumeHeldItem": false,
      "learnableMoves": [],
      "requirements": [
        {
          "variant": "level",
          "minLevel": 21
        }
      ]
    }
  ],
  "baseScale": 1,
  "hitbox": {
    "width": 1,
    "height": 1,
    "fixed": false
  },
  "baseFriendship": 50,
  "evYield": {
    "hp": 0,
    "attack": 1,
    "defence": 0,
    "special_attack": 0,
    "special_defence": 0,
    "speed": 0
  },
  "height": 3,
  "weight": 21,
  "aspects": [],
  "cannotDynamax": false
}