{
  "name": "Purrloin",
  "nationalPokedexNumber": 509,
  "primaryType": "dark",
  "abilities": [
    "limber",
    "unburden",
    "h:prankster"
  ],
  "baseStats": {
    "hp": 41,
    "attack": 50,
    "defence": 37,
    "special_attack": 50,
    "special_defence": 37,
    "speed": 66
  },
  "catchRate": 255,
  "maleRatio": 0.5,
  "shoulderMountable": false,
  "baseExperienceYield": 56,
  "experienceGroup": "medium_fast",
  "eggCycles": 20,
  "eggGroups": [
    "field"
  ],
  "moves": [
    "1:growl",
    "1:scratch",
    "4:sandattack",
    "5:fakeout",
    "6:assist",
    "12:furyswipes",
    "15:pursuit",
    "16:torment",
    "21:assurance",
    "24:honeclaws",
    "28:suckerpunch",
    "32:nastyplot",
    "33:captivate",
    "36:nightslash",
    "39:snatch",
    "40:playrough",
    "egg:copycat",
    "egg:covet",
    "egg:doubleteam",
    "egg:feintattack",
    "egg:quickattack",
    "egg:slash",
    "egg:yawn",
    "tm:aerialace",
    "tm:assurance",
    "tm:attract",
    "tm:batonpass",
    "tm:charm",
    "tm:confide",
    "tm:cut",
    "tm:darkpulse",
    "tm:dreameater",
    "tm:echoedvoice",
    "tm:embargo",
    "tm:encore",
    "tm:endure",
    "tm:facade",
    "tm:faketears",
    "tm:foulplay",
    "tm:frustration",
    "tm:grassknot",
    "tm:gunkshot",
    "tm:hiddenpower",
    "tm:hypervoice",
    "tm:irontail",
    "tm:nastyplot",
    "tm:payback",
    "tm:payday",
    "tm:playrough",
    "tm:protect",
    "tm:psychup",
    "tm:raindance",
    "tm:rest",
    "tm:return",
    "tm:round",
    "tm:screech",
    "tm:secretpower",
    "tm:seedbomb",
    "tm:shadowball",
    "tm:shadowclaw",
    "tm:sleeptalk",
    "tm:snarl",
    "tm:snore",
    "tm:substitute",
    "tm:sunnyday",
    "tm:swagger",
    "tm:swift",
    "tm:taunt",
    "tm:thief",
    "tm:thunderwave",
    "tm:toxic",
    "tm:trick",
    "tm:uturn",
    "tutor:knockoff",
    "tutor:lashout",
    "tutor:roleplay",
    "tutor:snatch",
    "tutor:spite"
  ],
  "labels": [
    "gen5"
  ],
  "pokedex": [
    "cobblemon.species.purrloin.desc"
  ],
  "evolutions": [
    {
      "id": "purrloin_liepard",
      "variant": "level_up",
      "result": "liepard",
      "consumeHeldItem": false,
      "learnableMoves": [],
      "requirements": [
        {
          "variant": "level",
          "minLevel": 20
        }
      ]
    }
  ],
  "baseScale": 1,
  "hitbox": {
    "width": 1,
    "height": 1,
    "fixed": false
  },
  "baseFriendship": 50,
  "evYield": {
    "hp": 0,
    "attack": 0,
    "defence": 0,
    "special_attack": 0,
    "special_defence": 0,
    "speed": 1
  },
  "height": 4,
  "weight": 101,
  "aspects": [],
  "cannotDynamax": false
}