{
  "name": "Bonsly",
  "nationalPokedexNumber": 438,
  "primaryType": "rock",
  "abilities": [
    "sturdy",
    "rockhead",
    "h:rattled"
  ],
  "baseStats": {
    "hp": 50,
    "attack": 80,
    "defence": 95,
    "special_attack": 10,
    "special_defence": 45,
    "speed": 10
  },
  "catchRate": 255,
  "maleRatio": 0.5,
  "shoulderMountable": false,
  "baseExperienceYield": 58,
  "experienceGroup": "medium_fast",
  "eggCycles": 20,
  "eggGroups": [
    "undiscovered"
  ],
  "moves": [
    "1:copycat",
    "1:faketears",
    "4:flail",
    "8:rockthrow",
    "12:block",
    "16:mimic",
    "19:feintattack",
    "20:rocktomb",
    "24:tearfullook",
    "28:suckerpunch",
    "32:rockslide",
    "36:lowkick",
    "38:slam",
    "40:counter",
    "44:doubleedge",
    "egg:curse",
    "egg:defensecurl",
    "egg:harden",
    "egg:headbutt",
    "egg:rockpolish",
    "egg:rollout",
    "tm:attract",
    "tm:bodyslam",
    "tm:brickbreak",
    "tm:bulldoze",
    "tm:calmmind",
    "tm:captivate",
    "tm:confide",
    "tm:dig",
    "tm:doubleteam",
    "tm:earthpower",
    "tm:earthquake",
    "tm:endure",
    "tm:explosion",
    "tm:facade",
    "tm:faketears",
    "tm:foulplay",
    "tm:frustration",
    "tm:grassknot",
    "tm:helpinghand",
    "tm:hiddenpower",
    "tm:lowkick",
    "tm:mudshot",
    "tm:mudslap",
    "tm:naturalgift",
    "tm:naturepower",
    "tm:powergem",
    "tm:protect",
    "tm:psychup",
    "tm:rest",
    "tm:return",
    "tm:rockblast",
    "tm:rockslide",
    "tm:rocktomb",
    "tm:round",
    "tm:sandstorm",
    "tm:sandtomb",
    "tm:secretpower",
    "tm:selfdestruct",
    "tm:sleeptalk",
    "tm:smackdown",
    "tm:snore",
    "tm:spikes",
    "tm:stealthrock",
    "tm:stompingtantrum",
    "tm:stoneedge",
    "tm:substitute",
    "tm:sunnyday",
    "tm:swagger",
    "tm:takedown",
    "tm:terablast",
    "tm:thief",
    "tm:toxic",
    "tm:trailblaze",
    "tm:uproar",
    "tutor:afteryou",
    "tutor:covet",
    "tutor:roleplay"
  ],
  "labels": [
    "gen4",
    "baby"
  ],
  "pokedex": [
    "cobblemon.species.bonsly.desc"
  ],
  "evolutions": [
    {
      "id": "bonsly_sudowoodo",
      "variant": "level_up",
      "result": "sudowoodo",
      "consumeHeldItem": false,
      "learnableMoves": [],
      "requirements": [
        {
          "variant": "has_move",
          "move": "mimic"
        }
      ]
    }
  ],
  "baseScale": 1,
  "hitbox": {
    "width": 1,
    "height": 1,
    "fixed": false
  },
  "baseFriendship": 50,
  "evYield": {
    "hp": 0,
    "attack": 0,
    "defence": 1,
    "special_attack": 0,
    "special_defence": 0,
    "speed": 0
  },
  "height": 5,
  "weight": 150,
  "aspects": [],
  "cannotDynamax": false
}