{
  "name": "Crabominable",
  "nationalPokedexNumber": 740,
  "primaryType": "fighting",
  "secondaryType": "ice",
  "abilities": [
    "hypercutter",
    "ironfist",
    "h:angerpoint"
  ],
  "baseStats": {
    "hp": 97,
    "attack": 132,
    "defence": 77,
    "special_attack": 62,
    "special_defence": 67,
    "speed": 43
  },
  "catchRate": 60,
  "maleRatio": 0.5,
  "shoulderMountable": false,
  "baseExperienceYield": 167,
  "experienceGroup": "medium_fast",
  "eggCycles": 20,
  "eggGroups": [
    "water_3"
  ],
  "moves": [
    "1:bubble",
    "1:leer",
    "1:protect",
    "1:pursuit",
    "1:rocksmash",
    "17:bubblebeam",
    "22:brickbreak",
    "22:poweruppunch",
    "25:dizzypunch",
    "25:slam",
    "29:avalanche",
    "33:reversal",
    "37:icehammer",
    "42:irondefense",
    "45:dynamicpunch",
    "49:closecombat",
    "tm:amnesia",
    "tm:attract",
    "tm:avalanche",
    "tm:blizzard",
    "tm:bodypress",
    "tm:bodyslam",
    "tm:brickbreak",
    "tm:brutalswing",
    "tm:bulkup",
    "tm:bulldoze",
    "tm:chillingwater",
    "tm:closecombat",
    "tm:confide",
    "tm:dig",
    "tm:doubleteam",
    "tm:drainpunch",
    "tm:earthquake",
    "tm:endure",
    "tm:facade",
    "tm:fling",
    "tm:focusblast",
    "tm:frostbreath",
    "tm:frustration",
    "tm:gigaimpact",
    "tm:gunkshot",
    "tm:hail",
    "tm:helpinghand",
    "tm:hiddenpower",
    "tm:hyperbeam",
    "tm:icebeam",
    "tm:icepunch",
    "tm:icespinner",
    "tm:icywind",
    "tm:irondefense",
    "tm:ironhead",
    "tm:liquidation",
    "tm:mudshot",
    "tm:mudslap",
    "tm:payback",
    "tm:protect",
    "tm:raindance",
    "tm:rest",
    "tm:return",
    "tm:reversal",
    "tm:rockslide",
    "tm:rocktomb",
    "tm:round",
    "tm:scald",
    "tm:scaryface",
    "tm:sleeptalk",
    "tm:snowscape",
    "tm:stompingtantrum",
    "tm:stoneedge",
    "tm:substitute",
    "tm:sunnyday",
    "tm:swagger",
    "tm:swift",
    "tm:takedown",
    "tm:terablast",
    "tm:thief",
    "tm:thunderpunch",
    "tm:toxic",
    "tm:workup",
    "tm:zenheadbutt",
    "tutor:block",
    "tutor:dualchop",
    "tutor:endeavor",
    "tutor:focuspunch",
    "tutor:snore",
    "tutor:superpower"
  ],
  "labels": [
    "gen7"
  ],
  "pokedex": [
    "cobblemon.species.crabominable.desc"
  ],
  "preEvolution": "crabrawler",
  "evolutions": [],
  "baseScale": 1,
  "hitbox": {
    "width": 1,
    "height": 1,
    "fixed": false
  },
  "baseFriendship": 70,
  "evYield": {
    "hp": 0,
    "attack": 2,
    "defence": 0,
    "special_attack": 0,
    "special_defence": 0,
    "speed": 0
  },
  "height": 17,
  "weight": 1800,
  "aspects": [],
  "cannotDynamax": false
}