{
  "name": "Kommo-o",
  "nationalPokedexNumber": 784,
  "primaryType": "dragon",
  "secondaryType": "fighting",
  "abilities": [
    "bulletproof",
    "soundproof",
    "h:overcoat"
  ],
  "baseStats": {
    "hp": 75,
    "attack": 110,
    "defence": 125,
    "special_attack": 100,
    "special_defence": 105,
    "speed": 85
  },
  "catchRate": 45,
  "maleRatio": 0.5,
  "shoulderMountable": false,
  "forms": [
    {
      "name": "Totem",
      "primaryType": "dragon",
      "secondaryType": "fighting",
      "abilities": [
        "overcoat"
      ],
      "baseStats": {
        "hp": 75,
        "attack": 110,
        "defence": 125,
        "special_attack": 100,
        "special_defence": 105,
        "speed": 85
      },
      "catchRate": 45,
      "maleRatio": 0.5,
      "baseExperienceYield": 270,
      "baseFriendship": 50,
      "evYield": {
        "hp": 0,
        "attack": 0,
        "defence": 3,
        "special_attack": 0,
        "special_defence": 0,
        "speed": 0
      },
      "experienceGroup": "slow",
      "eggCycles": 40,
      "eggGroups": [
        "dragon"
      ],
      "moves": [
        "1:autotomize",
        "1:bellydrum",
        "1:bide",
        "1:clangingscales",
        "1:leer",
        "1:protect",
        "1:skyuppercut",
        "1:tackle",
        "17:dragontail",
        "21:scaryface",
        "25:headbutt",
        "29:workup",
        "33:screech",
        "38:irondefense",
        "43:dragonclaw",
        "51:nobleroar",
        "59:dragondance",
        "67:outrage",
        "75:closecombat",
        "tm:aerialace",
        "tm:attract",
        "tm:brickbreak",
        "tm:brutalswing",
        "tm:bulkup",
        "tm:bulldoze",
        "tm:confide",
        "tm:doubleteam",
        "tm:dragonclaw",
        "tm:dragontail",
        "tm:earthquake",
        "tm:echoedvoice",
        "tm:facade",
        "tm:falseswipe",
        "tm:flamethrower",
        "tm:flashcannon",
        "tm:fling",
        "tm:focusblast",
        "tm:frustration",
        "tm:gigaimpact",
        "tm:hiddenpower",
        "tm:hyperbeam",
        "tm:payback",
        "tm:poisonjab",
        "tm:protect",
        "tm:rest",
        "tm:return",
        "tm:roar",
        "tm:rockpolish",
        "tm:rockslide",
        "tm:rocktomb",
        "tm:round",
        "tm:safeguard",
        "tm:sandstorm",
        "tm:shadowclaw",
        "tm:sleeptalk",
        "tm:substitute",
        "tm:swagger",
        "tm:swordsdance",
        "tm:taunt",
        "tm:toxic",
        "tm:workup",
        "tm:xscissor",
        "tutor:aquatail",
        "tutor:dracometeor",
        "tutor:dragonclaw",
        "tutor:dragonpulse",
        "tutor:drainpunch",
        "tutor:dualchop",
        "tutor:endeavor",
        "tutor:firepunch",
        "tutor:focuspunch",
        "tutor:hypervoice",
        "tutor:icepunch",
        "tutor:irondefense",
        "tutor:irondefense",
        "tutor:ironhead",
        "tutor:irontail",
        "tutor:laserfocus",
        "tutor:lowkick",
        "tutor:outrage",
        "tutor:screech",
        "tutor:shockwave",
        "tutor:snore",
        "tutor:stealthrock",
        "tutor:stompingtantrum",
        "tutor:superpower",
        "tutor:thunderpunch",
        "tutor:uproar",
        "tutor:waterpulse",
        "tutor:workup"
      ],
      "labels": [
        "gen7",
        "pseudo_legendary",
        "totem"
      ],
      "aspects": [
        "totem"
      ],
      "height": 24,
      "weight": 2075,
      "evolutions": [],
      "cannotDynamax": false,
      "battleOnly": false
    }
  ],
  "baseExperienceYield": 300,
  "experienceGroup": "slow",
  "eggCycles": 40,
  "eggGroups": [
    "dragon"
  ],
  "moves": [
    "1:autotomize",
    "1:bellydrum",
    "1:bide",
    "1:dragontail",
    "1:leer",
    "1:protect",
    "1:skyuppercut",
    "1:tackle",
    "12:scaryface",
    "16:headbutt",
    "20:workup",
    "24:screech",
    "28:irondefense",
    "32:dragonclaw",
    "38:nobleroar",
    "44:dragondance",
    "52:outrage",
    "60:closecombat",
    "68:clangoroussoul",
    "76:boomburst",
    "tm:aerialace",
    "tm:attract",
    "tm:aurasphere",
    "tm:bodypress",
    "tm:breakingswipe",
    "tm:brickbreak",
    "tm:brutalswing",
    "tm:bulkup",
    "tm:bulldoze",
    "tm:closecombat",
    "tm:confide",
    "tm:doubleteam",
    "tm:dragonclaw",
    "tm:dragondance",
    "tm:dragonpulse",
    "tm:drainpunch",
    "tm:earthquake",
    "tm:echoedvoice",
    "tm:endure",
    "tm:facade",
    "tm:falseswipe",
    "tm:firepunch",
    "tm:flamethrower",
    "tm:flashcannon",
    "tm:fling",
    "tm:focusblast",
    "tm:frustration",
    "tm:gigaimpact",
    "tm:hiddenpower",
    "tm:hyperbeam",
    "tm:hypervoice",
    "tm:icepunch",
    "tm:irondefense",
    "tm:ironhead",
    "tm:irontail",
    "tm:lowkick",
    "tm:megakick",
    "tm:megapunch",
    "tm:outrage",
    "tm:payback",
    "tm:poisonjab",
    "tm:protect",
    "tm:rest",
    "tm:return",
    "tm:revenge",
    "tm:reversal",
    "tm:roar",
    "tm:rockpolish",
    "tm:rockslide",
    "tm:rocktomb",
    "tm:round",
    "tm:safeguard",
    "tm:sandstorm",
    "tm:scaryface",
    "tm:screech",
    "tm:shadowclaw",
    "tm:sleeptalk",
    "tm:snore",
    "tm:stealthrock",
    "tm:stompingtantrum",
    "tm:substitute",
    "tm:superpower",
    "tm:swagger",
    "tm:swordsdance",
    "tm:taunt",
    "tm:thunderpunch",
    "tm:toxic",
    "tm:uproar",
    "tm:workup",
    "tm:xscissor",
    "tutor:aquatail",
    "tutor:coaching",
    "tutor:dracometeor",
    "tutor:dualchop",
    "tutor:endeavor",
    "tutor:focuspunch",
    "tutor:laserfocus",
    "tutor:scaleshot",
    "tutor:shockwave",
    "tutor:waterpulse"
  ],
  "labels": [
    "gen7",
    "pseudo_legendary"
  ],
  "pokedex": [
    "cobblemon.species.kommoo.desc"
  ],
  "preEvolution": "hakamoo",
  "evolutions": [],
  "baseScale": 1,
  "hitbox": {
    "width": 1,
    "height": 1,
    "fixed": false
  },
  "baseFriendship": 50,
  "evYield": {
    "hp": 0,
    "attack": 0,
    "defence": 3,
    "special_attack": 0,
    "special_defence": 0,
    "speed": 0
  },
  "height": 16,
  "weight": 782,
  "aspects": [],
  "cannotDynamax": false
}