{
  "name": "Type: Null",
  "nationalPokedexNumber": 772,
  "primaryType": "normal",
  "abilities": [
    "battlearmor"
  ],
  "baseStats": {
    "hp": 95,
    "attack": 95,
    "defence": 95,
    "special_attack": 95,
    "special_defence": 95,
    "speed": 59
  },
  "catchRate": 3,
  "maleRatio": -1,
  "shoulderMountable": false,
  "baseExperienceYield": 107,
  "experienceGroup": "slow",
  "eggCycles": 120,
  "eggGroups": [
    "undiscovered"
  ],
  "moves": [
    "1:imprison",
    "1:tackle",
    "5:aerialace",
    "5:rage",
    "10:pursuit",
    "10:scaryface",
    "15:doublehit",
    "20:metalsound",
    "25:crushclaw",
    "30:airslash",
    "35:triattack",
    "40:xscissor",
    "45:ironhead",
    "50:takedown",
    "55:doubleedge",
    "65:punishment",
    "70:razorwind",
    "85:healblock",
    "tm:airslash",
    "tm:confide",
    "tm:doubleteam",
    "tm:dragonclaw",
    "tm:endure",
    "tm:facade",
    "tm:flamecharge",
    "tm:frustration",
    "tm:gigaimpact",
    "tm:hail",
    "tm:hiddenpower",
    "tm:hyperbeam",
    "tm:icywind",
    "tm:imprison",
    "tm:irondefense",
    "tm:ironhead",
    "tm:payback",
    "tm:protect",
    "tm:raindance",
    "tm:rest",
    "tm:return",
    "tm:roar",
    "tm:rockslide",
    "tm:round",
    "tm:sandstorm",
    "tm:scaryface",
    "tm:shadowclaw",
    "tm:sleeptalk",
    "tm:snore",
    "tm:substitute",
    "tm:sunnyday",
    "tm:swagger",
    "tm:swift",
    "tm:swordsdance",
    "tm:thunderwave",
    "tm:toxic",
    "tm:triattack",
    "tm:uturn",
    "tm:workup",
    "tm:xscissor",
    "tutor:ironhead",
    "tutor:lastresort",
    "tutor:magiccoat",
    "tutor:signalbeam",
    "tutor:takedown",
    "tutor:terrainpulse",
    "tutor:triattack",
    "tutor:xscissor"
  ],
  "labels": [
    "gen7",
    "legendary"
  ],
  "pokedex": [
    "cobblemon.species.typenull.desc"
  ],
  "evolutions": [
    {
      "id": "typenull_silvally",
      "variant": "level_up",
      "result": "silvally",
      "consumeHeldItem": false,
      "learnableMoves": [
        "multiattack"
      ],
      "requirements": [
        {
          "variant": "friendship",
          "amount": 160
        }
      ]
    }
  ],
  "baseScale": 1,
  "hitbox": {
    "width": 1,
    "height": 1,
    "fixed": false
  },
  "baseFriendship": 0,
  "evYield": {
    "hp": 2,
    "attack": 0,
    "defence": 0,
    "special_attack": 0,
    "special_defence": 0,
    "speed": 0
  },
  "height": 19,
  "weight": 1205,
  "aspects": [],
  "cannotDynamax": false
}