{
  "name": "Perrserker",
  "nationalPokedexNumber": 863,
  "primaryType": "steel",
  "abilities": [
    "battlearmor",
    "toughclaws",
    "h:steelyspirit"
  ],
  "baseStats": {
    "hp": 70,
    "attack": 110,
    "defence": 100,
    "special_attack": 50,
    "special_defence": 60,
    "speed": 50
  },
  "catchRate": 90,
  "maleRatio": 0.5,
  "shoulderMountable": false,
  "baseExperienceYield": 154,
  "experienceGroup": "medium_fast",
  "eggCycles": 20,
  "eggGroups": [
    "field"
  ],
  "moves": [
    "1:fakeout",
    "1:growl",
    "1:honeclaws",
    "1:irondefense",
    "1:metalburst",
    "1:scratch",
    "12:payday",
    "16:metalclaw",
    "20:taunt",
    "24:swagger",
    "31:furyswipes",
    "36:screech",
    "42:slash",
    "48:metalsound",
    "54:thrash",
    "tm:amnesia",
    "tm:assurance",
    "tm:attract",
    "tm:batonpass",
    "tm:bodyslam",
    "tm:brickbreak",
    "tm:charm",
    "tm:chillingwater",
    "tm:closecombat",
    "tm:crunch",
    "tm:darkpulse",
    "tm:dig",
    "tm:endure",
    "tm:facade",
    "tm:faketears",
    "tm:falseswipe",
    "tm:fling",
    "tm:foulplay",
    "tm:gigaimpact",
    "tm:gunkshot",
    "tm:gyroball",
    "tm:heavyslam",
    "tm:helpinghand",
    "tm:hyperbeam",
    "tm:hypervoice",
    "tm:irondefense",
    "tm:ironhead",
    "tm:irontail",
    "tm:metalclaw",
    "tm:metronome",
    "tm:nastyplot",
    "tm:payback",
    "tm:playrough",
    "tm:protect",
    "tm:raindance",
    "tm:rest",
    "tm:retaliate",
    "tm:round",
    "tm:seedbomb",
    "tm:shadowball",
    "tm:shadowclaw",
    "tm:sleeptalk",
    "tm:snore",
    "tm:stealthrock",
    "tm:steelbeam",
    "tm:substitute",
    "tm:sunnyday",
    "tm:swordsdance",
    "tm:takedown",
    "tm:taunt",
    "tm:terablast",
    "tm:thief",
    "tm:throatchop",
    "tm:thunder",
    "tm:thunderbolt",
    "tm:trailblaze",
    "tm:uproar",
    "tm:uturn",
    "tm:workup",
    "tm:xscissor",
    "tutor:lashout"
  ],
  "labels": [
    "gen8"
  ],
  "pokedex": [
    "cobblemon.species.perrserker.desc"
  ],
  "preEvolution": "meowth form=galar",
  "evolutions": [],
  "baseScale": 1,
  "hitbox": {
    "width": 1,
    "height": 1,
    "fixed": false
  },
  "baseFriendship": 50,
  "evYield": {
    "hp": 0,
    "attack": 2,
    "defence": 0,
    "special_attack": 0,
    "special_defence": 0,
    "speed": 0
  },
  "height": 8,
  "weight": 280,
  "aspects": [],
  "cannotDynamax": false
}