{
    "enabled": true,
    "neededInstalledMods": [],
    "neededUninstalledMods": [],
    "spawns": [
        {
            "id": "metapod-1",
            "pokemon": "metapod",
            "type": "pokemon",
            "context": "grounded",
            "bucket": "common",
            "level": "7-20",
            "weight": 2.0,
            "condition": {
                "canSeeSky": true,
                "biomes": [
                    "#cobblemon:is_forest"
                ]
            },
            "anticondition": {
                "biomes": [
                    "#cobblemon:is_spooky"
                ]
            }
        },
        {
            "id": "metapod-2",
            "pokemon": "metapod",
            "presets": [
                "foliage"
            ],
            "type": "pokemon",
            "context": "grounded",
            "bucket": "common",
            "level": "7-20",
            "weight": 2.0,
            "condition": {
                "canSeeSky": true,
                "biomes": [
                    "#cobblemon:is_plains"
                ]
            }
        },
		{
            "id": "metapod-valencian-1",
            "pokemon": "metapod valencian",
            "type": "pokemon",
            "context": "grounded",
            "bucket": "common",
            "level": "7-20",
            "weight": 2.0,
            "condition": {
                "canSeeSky": true,
                "biomes": [
                    "#cobblemon:is_jungle"
                ]
            }
        }
    ]
}