{
    "enabled": true,
    "neededInstalledMods": [],
    "neededUninstalledMods": [],
    "spawns": [
        {
            "id": "parasect-1",
            "pokemon": "parasect",
            "type": "pokemon",
            "context": "grounded",
            "bucket": "uncommon",
            "level": "24-40",
            "weight": 1.0,
            "condition": {
                "canSeeSky": true,
                "biomes": [
                    "#cobblemon:is_lush"
                ]
            }
        },
        {
            "id": "parasect-2",
            "pokemon": "parasect",
            "type": "pokemon",
            "context": "grounded",
            "bucket": "common",
            "level": "24-40",
            "weight": 1.0,
            "condition": {
				"canSeeSky": true,
                "biomes": [
                    "#cobblemon:is_mushroom"
                ]
            }
        },
        {
            "id": "parasect-3",
            "pokemon": "parasect",
			"presets": [
                "underground"
            ],
            "type": "pokemon",
            "context": "grounded",
            "bucket": "common",
            "level": "24-40",
            "weight": 1.0,
            "condition": {
				"canSeeSky": false,
                "biomes": [
                    "#cobblemon:is_mushroom"
                ]
            }
        }
    ]
}