{
    "enabled": true,
    "neededInstalledMods": [],
    "neededUninstalledMods": [],
    "spawns": [
        {
            "id": "bibarel-1",
            "pokemon": "bibarel",
			"presets": [
                "freshwater"
            ],
            "type": "pokemon",
            "context": "grounded",
            "bucket": "common",
            "level": "15-41",
            "weight": 1.0,
            "condition": {
                "canSeeSky": true
            }
        },
        {
            "id": "bibarel-2",
            "pokemon": "bibarel",
			"presets": [
                "freshwater",
                "underwater"
            ],
            "type": "pokemon",
            "context": "submerged",
            "bucket": "common",
            "level": "15-41",
            "weight": 1.0,
            "condition": {
                "canSeeSky": true
            }
        }
    ]
}