{
    "enabled": true,
    "neededInstalledMods": [],
    "neededUninstalledMods": [],
    "spawns": [
        {
            "id": "basculin-bluestripe-1",
            "pokemon": "basculin bluestripe",
            "presets": [
                "river",
                "underwater"
            ],
            "type": "pokemon",
            "context": "submerged",
            "bucket": "common",
            "level": "4-46",
            "weight": 5.0,
            "condition": {
                "canSeeSky": true
            }
        },
		{
            "id": "basculin-redstripe-1",
            "pokemon": "basculin redstripe",
            "presets": [
                "river",
                "underwater"
            ],
            "type": "pokemon",
            "context": "submerged",
            "bucket": "common",
            "level": "4-46",
            "weight": 5.0,
            "condition": {
                "canSeeSky": true
            }
        }
    ]
}