{
  "implemented": true,
  "name": "Hypno",
  "nationalPokedexNumber": 97,
  "primaryType": "psychic",
  "abilities": [
    "insomnia",
    "forewarn",
    "h:innerfocus"
  ],
  "baseStats": {
    "hp": 85,
    "attack": 73,
    "defence": 70,
    "special_attack": 73,
    "special_defence": 115,
    "speed": 67
  },
  "catchRate": 75,
  "maleRatio": 0.5,
  "shoulderMountable": false,
  "baseExperienceYield": 169,
  "experienceGroup": "medium_fast",
  "eggCycles": 20,
  "eggGroups": [
    "human_like"
  ],
  "moves": [
    "1:confusion",
    "1:disable",
    "1:hypnosis",
    "1:nightmare",
    "1:pound",
    "1:switcheroo",
    "13:headbutt",
    "17:poisongas",
    "21:psybeam",
    "25:psychup",
    "29:wakeupslap",
    "32:zenheadbutt",
    "37:swagger",
    "37:synchronoise",
    "42:psychic",
    "47:nastyplot",
    "51:psyshock",
    "56:futuresight",
    "tm:attract",
    "tm:batonpass",
    "tm:bodypress",
    "tm:bodyslam",
    "tm:brickbreak",
    "tm:calmmind",
    "tm:captivate",
    "tm:confide",
    "tm:confuseray",
    "tm:dazzlinggleam",
    "tm:doubleteam",
    "tm:drainingkiss",
    "tm:drainpunch",
    "tm:encore",
    "tm:endure",
    "tm:facade",
    "tm:firepunch",
    "tm:fling",
    "tm:focusblast",
    "tm:foulplay",
    "tm:frustration",
    "tm:gigaimpact",
    "tm:grassknot",
    "tm:helpinghand",
    "tm:hex",
    "tm:hiddenpower",
    "tm:hyperbeam",
    "tm:icepunch",
    "tm:imprison",
    "tm:lightscreen",
    "tm:lowkick",
    "tm:lowsweep",
    "tm:metronome",
    "tm:nastyplot",
    "tm:naturalgift",
    "tm:nightshade",
    "tm:poweruppunch",
    "tm:protect",
    "tm:psybeam",
    "tm:psychic",
    "tm:psychicterrain",
    "tm:psyshock",
    "tm:raindance",
    "tm:reflect",
    "tm:rest",
    "tm:return",
    "tm:round",
    "tm:safeguard",
    "tm:scaryface",
    "tm:secretpower",
    "tm:shadowball",
    "tm:skillswap",
    "tm:sleeptalk",
    "tm:storedpower",
    "tm:substitute",
    "tm:sunnyday",
    "tm:swift",
    "tm:takedown",
    "tm:taunt",
    "tm:terablast",
    "tm:thief",
    "tm:thunderpunch",
    "tm:thunderwave",
    "tm:torment",
    "tm:trailblaze",
    "tm:trick",
    "tm:trickroom",
    "tm:zenheadbutt",
    "tutor:allyswitch",
    "tutor:attract",
    "tutor:barrier",
    "tutor:bide",
    "tutor:counter",
    "tutor:curse",
    "tutor:doubleedge",
    "tutor:doubleteam",
    "tutor:dreameater",
    "tutor:dynamicpunch",
    "tutor:flash",
    "tutor:focuspunch",
    "tutor:frustration",
    "tutor:hiddenpower",
    "tutor:magiccoat",
    "tutor:magicroom",
    "tutor:meditate",
    "tutor:megakick",
    "tutor:megapunch",
    "tutor:mimic",
    "tutor:nightmare",
    "tutor:psywave",
    "tutor:rage",
    "tutor:recycle",
    "tutor:return",
    "tutor:roleplay",
    "tutor:seismictoss",
    "tutor:signalbeam",
    "tutor:skullbash",
    "tutor:snatch",
    "tutor:snore",
    "tutor:snore",
    "tutor:submission",
    "tutor:telekinesis",
    "tutor:teleport",
    "tutor:toxic",
    "tutor:triattack",
    "tutor:zapcannon"
  ],
  "labels": [
    "gen1"
  ],
  "pokedex": [
    "cobblemon.species.hypno.desc"
  ],
  "preEvolution": "drowzee",
  "evolutions": [],
  "baseScale": 1.1,
  "hitbox": {
    "width": 0.5,
    "height": 1.3,
    "fixed": false
  },
  "baseFriendship": 70,
  "evYield": {
    "hp": 0,
    "attack": 0,
    "defence": 0,
    "special_attack": 0,
    "special_defence": 2,
    "speed": 0
  },
  "height": 16,
  "weight": 756,
  "aspects": [],
  "cannotDynamax": false
}